<?xml version="1.0" encoding="UTF-8" standalone="no"?>
<!DOCTYPE svg PUBLIC "-//W3C//DTD SVG 1.1//EN"
 "http://www.w3.org/Graphics/SVG/1.1/DTD/svg11.dtd">
<!-- Generated by graphviz version 2.40.1 (20161225.0304)
 -->
<!-- Title: dependencies Pages: 1 -->
<svg width="911pt" height="428pt"
 viewBox="0.00 0.00 911.00 428.00" xmlns="http://www.w3.org/2000/svg" xmlns:xlink="http://www.w3.org/1999/xlink">
<g id="graph0" class="graph" transform="scale(1 1) rotate(0) translate(4 424)">
<title>dependencies</title>
<polygon fill="#ffffff" stroke="transparent" points="-4,4 -4,-424 907,-424 907,4 -4,4"/>
<text text-anchor="start" x="430.5091" y="-42.4" font-family="sans-serif" font-weight="bold" font-size="14.00" fill="#000000">Legend</text>
<polygon fill="#ffffb3" stroke="transparent" points="217.5,-10 217.5,-30 237.5,-30 237.5,-10 217.5,-10"/>
<text text-anchor="start" x="241.129" y="-15.4" font-family="sans-serif" font-size="14.00" fill="#000000"> &#160;Declarations</text>
<polygon fill="#8dd3c7" stroke="transparent" points="330.5,-10 330.5,-30 350.5,-30 350.5,-10 330.5,-10"/>
<text text-anchor="start" x="354.2251" y="-15.4" font-family="sans-serif" font-size="14.00" fill="#000000"> &#160;Module</text>
<polygon fill="#80b1d3" stroke="transparent" points="416.5,-10 416.5,-30 436.5,-30 436.5,-10 416.5,-10"/>
<text text-anchor="start" x="440.2812" y="-15.4" font-family="sans-serif" font-size="14.00" fill="#000000"> &#160;Bootstrap</text>
<polygon fill="#fdb462" stroke="transparent" points="513.5,-10 513.5,-30 533.5,-30 533.5,-10 513.5,-10"/>
<text text-anchor="start" x="537.1732" y="-15.4" font-family="sans-serif" font-size="14.00" fill="#000000"> &#160;Providers</text>
<polygon fill="#fb8072" stroke="transparent" points="609.5,-10 609.5,-30 629.5,-30 629.5,-10 609.5,-10"/>
<text text-anchor="start" x="633.2258" y="-15.4" font-family="sans-serif" font-size="14.00" fill="#000000"> &#160;Exports</text>
<g id="clust1" class="cluster">
<title>cluster_AppModule</title>
<polygon fill="none" stroke="#000000" stroke-dasharray="1,5" points="302,-146 302,-412 723,-412 723,-146 302,-146"/>
</g>
<g id="clust3" class="cluster">
<title>cluster_AppModule_imports</title>
<polygon fill="none" stroke="#000000" points="310,-154 310,-347 703,-347 703,-154 310,-154"/>
</g>
<g id="clust7" class="cluster">
<title>cluster_AuthenticateModule</title>
<polygon fill="none" stroke="#000000" stroke-dasharray="1,5" points="454,-70 454,-138 610,-138 610,-70 454,-70"/>
</g>
<g id="clust12" class="cluster">
<title>cluster_AuthenticateModule_providers</title>
<polygon fill="none" stroke="#000000" points="462,-78 462,-130 602,-130 602,-78 462,-78"/>
</g>
<g id="clust13" class="cluster">
<title>cluster_ChatModule</title>
<polygon fill="none" stroke="#000000" stroke-dasharray="1,5" points="67,-146 67,-214 215,-214 215,-146 67,-146"/>
</g>
<g id="clust18" class="cluster">
<title>cluster_ChatModule_providers</title>
<polygon fill="none" stroke="#000000" points="75,-154 75,-206 207,-206 207,-154 75,-154"/>
</g>
<g id="clust19" class="cluster">
<title>cluster_DialogsModule</title>
<polygon fill="none" stroke="#000000" stroke-dasharray="1,5" points="731,-146 731,-214 895,-214 895,-146 731,-146"/>
</g>
<g id="clust24" class="cluster">
<title>cluster_DialogsModule_providers</title>
<polygon fill="none" stroke="#000000" points="739,-154 739,-206 887,-206 887,-154 739,-154"/>
</g>
<g id="clust25" class="cluster">
<title>cluster_TripsModule</title>
<polygon fill="none" stroke="#000000" stroke-dasharray="1,5" points="142,-222 142,-290 294,-290 294,-222 142,-222"/>
</g>
<g id="clust30" class="cluster">
<title>cluster_TripsModule_providers</title>
<polygon fill="none" stroke="#000000" points="150,-230 150,-282 286,-282 286,-230 150,-230"/>
</g>
<g id="clust31" class="cluster">
<title>cluster_UsersModule</title>
<polygon fill="none" stroke="#000000" stroke-dasharray="1,5" points="8,-222 8,-290 134,-290 134,-222 8,-222"/>
</g>
<g id="clust34" class="cluster">
<title>cluster_UsersModule_exports</title>
<polygon fill="none" stroke="#000000" points="16,-230 16,-282 126,-282 126,-230 16,-230"/>
</g>
<!-- AuthenticateModule -->
<g id="node1" class="node">
<title>AuthenticateModule</title>
<polygon fill="#8dd3c7" stroke="#000000" points="573.5772,-274 570.5772,-278 549.5772,-278 546.5772,-274 442.4228,-274 442.4228,-238 573.5772,-238 573.5772,-274"/>
<text text-anchor="middle" x="508" y="-251.8" font-family="Times,serif" font-size="14.00" fill="#000000">AuthenticateModule</text>
</g>
<!-- AppModule -->
<g id="node6" class="node">
<title>AppModule</title>
<polygon fill="#8dd3c7" stroke="#000000" points="549.6571,-404 546.6571,-408 525.6571,-408 522.6571,-404 466.3429,-404 466.3429,-368 549.6571,-368 549.6571,-404"/>
<text text-anchor="middle" x="508" y="-381.8" font-family="Times,serif" font-size="14.00" fill="#000000">AppModule</text>
</g>
<!-- AuthenticateModule&#45;&gt;AppModule -->
<g id="edge1" class="edge">
<title>AuthenticateModule&#45;&gt;AppModule</title>
<path fill="none" stroke="#000000" d="M521.9427,-274.0759C521.9427,-274.0759 521.9427,-357.6585 521.9427,-357.6585"/>
<polygon fill="#000000" stroke="#000000" points="518.4428,-357.6585 521.9427,-367.6585 525.4428,-357.6585 518.4428,-357.6585"/>
</g>
<!-- ChatModule -->
<g id="node2" class="node">
<title>ChatModule</title>
<polygon fill="#8dd3c7" stroke="#000000" points="423.9916,-274 420.9916,-278 399.9916,-278 396.9916,-274 338.0084,-274 338.0084,-238 423.9916,-238 423.9916,-274"/>
<text text-anchor="middle" x="381" y="-251.8" font-family="Times,serif" font-size="14.00" fill="#000000">ChatModule</text>
</g>
<!-- TripsModule -->
<g id="node4" class="node">
<title>TripsModule</title>
<polygon fill="#8dd3c7" stroke="#000000" points="407.5983,-339 404.5983,-343 383.5983,-343 380.5983,-339 318.4017,-339 318.4017,-303 407.5983,-303 407.5983,-339"/>
<text text-anchor="middle" x="363" y="-316.8" font-family="Times,serif" font-size="14.00" fill="#000000">TripsModule</text>
</g>
<!-- ChatModule&#45;&gt;TripsModule -->
<g id="edge14" class="edge">
<title>ChatModule&#45;&gt;TripsModule</title>
<path fill="none" stroke="#000000" d="M372.7767,-274.1061C372.7767,-274.1061 372.7767,-292.991 372.7767,-292.991"/>
<polygon fill="#000000" stroke="#000000" points="369.2767,-292.9909 372.7767,-302.991 376.2767,-292.991 369.2767,-292.9909"/>
</g>
<!-- ChatModule&#45;&gt;AppModule -->
<g id="edge2" class="edge">
<title>ChatModule&#45;&gt;AppModule</title>
<path fill="none" stroke="#000000" d="M415.7725,-274.0597C415.7725,-311.0544 415.7725,-392 415.7725,-392 415.7725,-392 456.2038,-392 456.2038,-392"/>
<polygon fill="#000000" stroke="#000000" points="456.2038,-395.5001 466.2038,-392 456.2037,-388.5001 456.2038,-395.5001"/>
</g>
<!-- DialogsModule -->
<g id="node3" class="node">
<title>DialogsModule</title>
<polygon fill="#8dd3c7" stroke="#000000" points="694.5968,-274 691.5968,-278 670.5968,-278 667.5968,-274 591.4032,-274 591.4032,-238 694.5968,-238 694.5968,-274"/>
<text text-anchor="middle" x="643" y="-251.8" font-family="Times,serif" font-size="14.00" fill="#000000">DialogsModule</text>
</g>
<!-- DialogsModule&#45;&gt;AppModule -->
<g id="edge3" class="edge">
<title>DialogsModule&#45;&gt;AppModule</title>
<path fill="none" stroke="#000000" d="M643,-274.0759C643,-309.7964 643,-386 643,-386 643,-386 559.9748,-386 559.9748,-386"/>
<polygon fill="#000000" stroke="#000000" points="559.9749,-382.5001 549.9748,-386 559.9748,-389.5001 559.9749,-382.5001"/>
</g>
<!-- TripsModule&#45;&gt;AppModule -->
<g id="edge4" class="edge">
<title>TripsModule&#45;&gt;AppModule</title>
<path fill="none" stroke="#000000" d="M407.7359,-327C445.7022,-327 494.0573,-327 494.0573,-327 494.0573,-327 494.0573,-357.9775 494.0573,-357.9775"/>
<polygon fill="#000000" stroke="#000000" points="490.5574,-357.9774 494.0573,-367.9775 497.5574,-357.9775 490.5574,-357.9774"/>
</g>
<!-- UsersModule -->
<g id="node5" class="node">
<title>UsersModule</title>
<polygon fill="#8dd3c7" stroke="#000000" points="503.9218,-198 500.9218,-202 479.9218,-202 476.9218,-198 412.0782,-198 412.0782,-162 503.9218,-162 503.9218,-198"/>
<text text-anchor="middle" x="458" y="-175.8" font-family="Times,serif" font-size="14.00" fill="#000000">UsersModule</text>
</g>
<!-- UsersModule&#45;&gt;AuthenticateModule -->
<g id="edge6" class="edge">
<title>UsersModule&#45;&gt;AuthenticateModule</title>
<path fill="none" stroke="#000000" d="M473.0859,-198.0109C473.0859,-198.0109 473.0859,-227.855 473.0859,-227.855"/>
<polygon fill="#000000" stroke="#000000" points="469.586,-227.8549 473.0859,-237.855 476.586,-227.855 469.586,-227.8549"/>
</g>
<!-- UsersModule&#45;&gt;ChatModule -->
<g id="edge8" class="edge">
<title>UsersModule&#45;&gt;ChatModule</title>
<path fill="none" stroke="#000000" d="M420.0937,-198.0109C420.0937,-198.0109 420.0937,-227.855 420.0937,-227.855"/>
<polygon fill="#000000" stroke="#000000" points="416.5938,-227.8549 420.0937,-237.855 423.5938,-227.855 416.5938,-227.8549"/>
</g>
<!-- UsersModule&#45;&gt;DialogsModule -->
<g id="edge11" class="edge">
<title>UsersModule&#45;&gt;DialogsModule</title>
<path fill="none" stroke="#000000" d="M503.8692,-174C554.0673,-174 627.5001,-174 627.5001,-174 627.5001,-174 627.5001,-227.8015 627.5001,-227.8015"/>
<polygon fill="#000000" stroke="#000000" points="624.0002,-227.8015 627.5001,-237.8015 631.0002,-227.8016 624.0002,-227.8015"/>
</g>
<!-- UsersModule&#45;&gt;TripsModule -->
<g id="edge15" class="edge">
<title>UsersModule&#45;&gt;TripsModule</title>
<path fill="none" stroke="#000000" d="M430.151,-198.2067C430.151,-235.0559 430.151,-315 430.151,-315 430.151,-315 417.7907,-315 417.7907,-315"/>
<polygon fill="#000000" stroke="#000000" points="417.7907,-311.5001 407.7907,-315 417.7907,-318.5001 417.7907,-311.5001"/>
</g>
<!-- UsersModule&#45;&gt;AppModule -->
<g id="edge5" class="edge">
<title>UsersModule&#45;&gt;AppModule</title>
<path fill="none" stroke="#000000" d="M436.3062,-198.1014C436.3062,-247.3332 436.3062,-380 436.3062,-380 436.3062,-380 456.2954,-380 456.2954,-380"/>
<polygon fill="#000000" stroke="#000000" points="456.2955,-383.5001 466.2954,-380 456.2954,-376.5001 456.2955,-383.5001"/>
</g>
<!-- UsersService  -->
<g id="node11" class="node">
<title>UsersService </title>
<polygon fill="#fb8072" stroke="#000000" points="117.8493,-274 24.1507,-274 24.1507,-238 117.8493,-238 117.8493,-274"/>
<text text-anchor="middle" x="71" y="-251.8" font-family="Times,serif" font-size="14.00" fill="#000000">UsersService </text>
</g>
<!-- UsersModule&#45;&gt;UsersService  -->
<g id="edge19" class="edge">
<title>UsersModule&#45;&gt;UsersService </title>
<path fill="none" stroke="#000000" stroke-dasharray="5,2" d="M416.1917,-198.1097C416.1917,-207.897 416.1917,-218 416.1917,-218 416.1917,-218 100.2217,-218 100.2217,-218 100.2217,-218 100.2217,-227.8903 100.2217,-227.8903"/>
<polygon fill="#000000" stroke="#000000" points="96.7218,-227.8903 100.2217,-237.8903 103.7218,-227.8904 96.7218,-227.8903"/>
</g>
<!-- UsersService -->
<g id="node7" class="node">
<title>UsersService</title>
<ellipse fill="#fdb462" stroke="#000000" cx="532" cy="-104" rx="61.9519" ry="18"/>
<text text-anchor="middle" x="532" y="-99.8" font-family="Times,serif" font-size="14.00" fill="#000000">UsersService</text>
</g>
<!-- UsersService&#45;&gt;AuthenticateModule -->
<g id="edge7" class="edge">
<title>UsersService&#45;&gt;AuthenticateModule</title>
<path fill="none" stroke="#000000" d="M538.6245,-122.0333C538.6245,-122.0333 538.6245,-227.9902 538.6245,-227.9902"/>
<polygon fill="#000000" stroke="#000000" points="535.1246,-227.9901 538.6245,-237.9902 542.1246,-227.9902 535.1246,-227.9901"/>
</g>
<!-- UsersService&#45;&gt;ChatModule -->
<g id="edge10" class="edge">
<title>UsersService&#45;&gt;ChatModule</title>
<path fill="none" stroke="#000000" d="M473.2376,-110C433.2397,-110 387.5278,-110 387.5278,-110 387.5278,-110 387.5278,-227.8042 387.5278,-227.8042"/>
<polygon fill="#000000" stroke="#000000" points="384.0279,-227.8042 387.5278,-237.8042 391.0279,-227.8042 384.0279,-227.8042"/>
</g>
<!-- UsersService&#45;&gt;DialogsModule -->
<g id="edge13" class="edge">
<title>UsersService&#45;&gt;DialogsModule</title>
<path fill="none" stroke="#000000" d="M582.4951,-114.4476C582.4951,-148.7887 582.4951,-256 582.4951,-256 582.4951,-256 583.3879,-256 583.3879,-256"/>
<polygon fill="#000000" stroke="#000000" points="581.4228,-259.5001 591.4228,-256 581.4228,-252.5001 581.4228,-259.5001"/>
</g>
<!-- UsersService&#45;&gt;TripsModule -->
<g id="edge18" class="edge">
<title>UsersService&#45;&gt;TripsModule</title>
<path fill="none" stroke="#000000" d="M473.4039,-98C414.738,-98 333.1159,-98 333.1159,-98 333.1159,-98 333.1159,-292.751 333.1159,-292.751"/>
<polygon fill="#000000" stroke="#000000" points="329.616,-292.7509 333.1159,-302.751 336.616,-292.751 329.616,-292.7509"/>
</g>
<!-- UsersService&#45;&gt;UsersModule -->
<g id="edge20" class="edge">
<title>UsersService&#45;&gt;UsersModule</title>
<path fill="none" stroke="#000000" d="M486.8672,-116.5499C486.8672,-116.5499 486.8672,-151.7417 486.8672,-151.7417"/>
<polygon fill="#000000" stroke="#000000" points="483.3673,-151.7417 486.8672,-161.7417 490.3673,-151.7418 483.3673,-151.7417"/>
</g>
<!-- ChatService -->
<g id="node8" class="node">
<title>ChatService</title>
<ellipse fill="#fdb462" stroke="#000000" cx="141" cy="-180" rx="58.4628" ry="18"/>
<text text-anchor="middle" x="141" y="-175.8" font-family="Times,serif" font-size="14.00" fill="#000000">ChatService</text>
</g>
<!-- ChatService&#45;&gt;ChatModule -->
<g id="edge9" class="edge">
<title>ChatService&#45;&gt;ChatModule</title>
<path fill="none" stroke="#000000" d="M196.1035,-174C261.7823,-174 362.766,-174 362.766,-174 362.766,-174 362.766,-227.8015 362.766,-227.8015"/>
<polygon fill="#000000" stroke="#000000" points="359.2661,-227.8015 362.766,-237.8015 366.2661,-227.8016 359.2661,-227.8015"/>
</g>
<!-- ChatService&#45;&gt;TripsModule -->
<g id="edge16" class="edge">
<title>ChatService&#45;&gt;TripsModule</title>
<path fill="none" stroke="#000000" d="M195.9094,-186C251.1548,-186 328.2276,-186 328.2276,-186 328.2276,-186 328.2276,-292.7933 328.2276,-292.7933"/>
<polygon fill="#000000" stroke="#000000" points="324.7276,-292.7933 328.2276,-302.7933 331.7276,-292.7933 324.7276,-292.7933"/>
</g>
<!-- DialogService -->
<g id="node9" class="node">
<title>DialogService</title>
<ellipse fill="#fdb462" stroke="#000000" cx="813" cy="-180" rx="66.0492" ry="18"/>
<text text-anchor="middle" x="813" y="-175.8" font-family="Times,serif" font-size="14.00" fill="#000000">DialogService</text>
</g>
<!-- DialogService&#45;&gt;DialogsModule -->
<g id="edge12" class="edge">
<title>DialogService&#45;&gt;DialogsModule</title>
<path fill="none" stroke="#000000" d="M750.3082,-186C708.4448,-186 661.0242,-186 661.0242,-186 661.0242,-186 661.0242,-227.9733 661.0242,-227.9733"/>
<polygon fill="#000000" stroke="#000000" points="657.5243,-227.9732 661.0242,-237.9733 664.5243,-227.9733 657.5243,-227.9732"/>
</g>
<!-- TripsService -->
<g id="node10" class="node">
<title>TripsService</title>
<ellipse fill="#fdb462" stroke="#000000" cx="218" cy="-256" rx="60.2479" ry="18"/>
<text text-anchor="middle" x="218" y="-251.8" font-family="Times,serif" font-size="14.00" fill="#000000">TripsService</text>
</g>
<!-- TripsService&#45;&gt;TripsModule -->
<g id="edge17" class="edge">
<title>TripsService&#45;&gt;TripsModule</title>
<path fill="none" stroke="#000000" d="M278.6659,-256C302.082,-256 323.3392,-256 323.3392,-256 323.3392,-256 323.3392,-292.8939 323.3392,-292.8939"/>
<polygon fill="#000000" stroke="#000000" points="319.8393,-292.8938 323.3392,-302.8939 326.8393,-292.8939 319.8393,-292.8938"/>
</g>
</g>
</svg>
